{
    "metadata": {},
    "user": {
        "id": 7771271,
        "first_name": "José Antonio",
        "picture_url": "https://a2.muscache.com/ac/users/7771271/profile_pic/1375029259/original.jpg?interpolation=lanczos-none&crop=w:w;*,*&crop=h:h;*,*&resize=225:*&output-format=jpg&output-quality=70",
        "thumbnail_url": "https://a2.muscache.com/ac/users/7771271/profile_pic/1375029259/original.jpg?interpolation=lanczos-none&crop=w:w;*,*&crop=h:h;*,*&resize=50:*&output-format=jpg&output-quality=70",
        "has_profile_pic": true,
        "acceptance_rate": "100%",
        "created_at": "2013-07-28T12:34:32Z",
        "identity_verified": true,
        "is_superhost": true,
        "picture_large_url": "https://a2.muscache.com/ac/users/7771271/profile_pic/1375029259/original.jpg?interpolation=lanczos-none&crop=w:w;*,*&crop=h:h;*,*&resize=640:*&output-format=jpg&output-quality=70",
        "publicly_visible_wishlists_count": 0,
        "recommendation_count": 0,
        "response_rate": "100%",
        "response_time": "en menos de una hora",
        "reviewee_count": 194,
        "thumbnail_medium_url": "https://a2.muscache.com/ac/users/7771271/profile_pic/1375029259/original.jpg?interpolation=lanczos-none&crop=w:w;*,*&crop=h:h;*,*&resize=68:*&output-format=jpg&output-quality=70",
        "wishlists_count": 1,
        "neighborhood": null,
        "verification_labels": [
            "Correo electrónico",
            "Número de teléfono",
            "Con evaluaciones",
            "Identificación offline"
        ],
        "verifications": [
            "email",
            "phone",
            "reviews",
            "jumio"
        ],
        "about": "Soy un Arquitecto Técnico con la especialidad de restaurar y rehabilitar viviendas. Soy una persona urbana, que es en el ámbito donde casi siempre he vivido, pero también disfruto en la naturaleza tanto de interior como de costa. Me gusta el arte en general, la música, el cine, el teatro, la pintura, la lectura, aunque en realidad tengo que decir, en honor a la verdad, que he profundizado poco en ellas. Soy sensible, confiable, serio, aunque con sentido del humor. Vivo solo, pero soy sociable, por lo que me he atrevido a convivir con otras personas desconocidas en mi casa, que, aunque sin ser ésta muy grande, tiene condiciones para mantener ambas partes nuestra independencia. Dejé el ábito de fumar y conservo el de tomar un vino de vez en cuando, por lo que conozco en Granada, bares de vinos y tapas interesantes Por lo demás, ya nos iremos conociendo si te decides a venir  a mi casa, que es la tuya, y conocer esta ciudad tan atractiva como es Granda.",
        "friends_count": 0,
        "is_generated_user": false,
        "listings_count": 2,
        "location": "Granada, Andalusia, Spain",
        "recent_recommendation": null,
        "recent_review": {
            "review": {
                "id": 51528656,
                "reviewer_id": 26367042,
                "reviewee_id": 7771271,
                "created_at": "2015-10-21T11:45:41Z",
                "reviewer": {
                    "user": {
                        "id": 26367042,
                        "first_name": "Pierre",
                        "picture_url": "https://a2.muscache.com/ac/users/26367042/profile_pic/1421703252/original.jpg?interpolation=lanczos-none&crop=w:w;*,*&crop=h:h;*,*&resize=225:*&output-format=jpg&output-quality=70",
                        "thumbnail_url": "https://a2.muscache.com/ac/users/26367042/profile_pic/1421703252/original.jpg?interpolation=lanczos-none&crop=w:w;*,*&crop=h:h;*,*&resize=50:*&output-format=jpg&output-quality=70",
                        "has_profile_pic": true
                    }
                },
                "comments": "Logement conforme à la présentation, vue extraordinaire sur lAlhambra, ambiance cosy et appartement bien équipé. Très bel emplacement pour visiter Grenade, accès pitoresque à l'appartement. José est un hote passionné par son quartier, accueillant et disponible.",
                "listing_id": 634104,
                "listing": {
                    "listing": {
                        "city": "Granada",
                        "collection_ids": null,
                        "country": "España",
                        "has_double_blind_reviews": false,
                        "id": 634104,
                        "instant_bookable": true,
                        "lat": 37.17867747909211,
                        "lng": -3.5962747906825197,
                        "medium_url": "https://a1.muscache.com/im/pictures/25188064/6d7616ed_original.jpg?aki_policy=medium",
                        "name": "FRONT OF THE ALHAMBRA -2",
                        "native_currency": "EUR",
                        "picture_url": "https://a1.muscache.com/ac/pictures/25188064/6d7616ed_original.jpg?interpolation=lanczos-none&size=large_cover&output-format=jpg&output-quality=70",
                        "price": 56,
                        "price_formatted": "49€",
                        "price_native": 49,
                        "smart_location": "Granada, España",
                        "thumbnail_url": "https://a1.muscache.com/ac/pictures/25188064/6d7616ed_original.jpg?interpolation=lanczos-none&size=small&output-format=jpg&output-quality=70",
                        "user": {
                            "user": {
                                "id": 7771271,
                                "first_name": "José Antonio",
                                "picture_url": "https://a2.muscache.com/ac/users/7771271/profile_pic/1375029259/original.jpg?interpolation=lanczos-none&crop=w:w;*,*&crop=h:h;*,*&resize=225:*&output-format=jpg&output-quality=70",
                                "thumbnail_url": "https://a2.muscache.com/ac/users/7771271/profile_pic/1375029259/original.jpg?interpolation=lanczos-none&crop=w:w;*,*&crop=h:h;*,*&resize=50:*&output-format=jpg&output-quality=70",
                                "has_profile_pic": true
                            }
                        },
                        "user_id": 7771271,
                        "xl_picture_url": "https://a1.muscache.com/ac/pictures/25188064/6d7616ed_original.jpg?interpolation=lanczos-none&size=x_large_cover&output-format=jpg&output-quality=70"
                    }
                },
                "reviewee": {
                    "user": {
                        "id": 7771271,
                        "first_name": "José Antonio",
                        "picture_url": "https://a2.muscache.com/ac/users/7771271/profile_pic/1375029259/original.jpg?interpolation=lanczos-none&crop=w:w;*,*&crop=h:h;*,*&resize=225:*&output-format=jpg&output-quality=70",
                        "thumbnail_url": "https://a2.muscache.com/ac/users/7771271/profile_pic/1375029259/original.jpg?interpolation=lanczos-none&crop=w:w;*,*&crop=h:h;*,*&resize=50:*&output-format=jpg&output-quality=70",
                        "has_profile_pic": true
                    }
                }
            }
        },
        "school": "International System of Units",
        "total_listings_count": 2,
        "work": "Arquitecto técnico."
    }
}